{
    "defaultSeverity": "error",
    "extends": [
        "tslint:recommended"
    ],
    "jsRules": {},
    "rules": {
        "indent": [true, "spaces", 4],
        "linebreak-style": [true, "LF"],
        "quotemark": [true, "single"],
        "semicolon": [true, "always"],
        "no-console": false,
        "curly": true,
        "triple-equals": true,
        "no-string-throw": true,
        "no-var-keyword": true,
        "no-trailing-whitespace": true,
        "object-literal-key-quotes": [true, "as-needed"],
        "max-line-length": false,
        "variable-name":false,
        "adjacent-overload-signatures": false
    },
    "rulesDirectory": []
}